{
    "fluentMethods": true,
    "clientRootFolder": "",
    "relationships": [],
    "fields": [
        {
            "fieldName": "clientId",
            "fieldType": "String",
            "fieldValidateRules": [
                "required",
                "unique"
            ]
        },
        {
            "fieldName": "clientName",
            "fieldType": "String",
            "fieldValidateRules": [
                "required",
                "unique"
            ]
        },
        {
            "fieldName": "clientEmail",
            "fieldType": "String"
        },
        {
            "fieldName": "tangoAccountIdentifier",
            "fieldType": "String"
        },
        {
            "fieldName": "tangoCustomerIdentifier",
            "fieldType": "String"
        },
        {
            "fieldName": "tangoCurrentBalance",
            "fieldType": "BigDecimal"
        },
        {
            "fieldName": "tangoThresholdBalance",
            "fieldType": "BigDecimal"
        },
        {
            "fieldName": "tangoCreditToken",
            "fieldType": "String"
        },
        {
            "fieldName": "updatedDate",
            "fieldType": "Instant",
            "fieldValidateRules": [
                "required"
            ]
        },
        {
            "fieldName": "updatedBy",
            "fieldType": "String",
            "fieldValidateRules": [
                "required"
            ]
        }
    ],
    "changelogDate": "20190925152804",
    "dto": "mapstruct",
    "searchEngine": false,
    "service": "serviceImpl",
    "entityTableName": "client_setting",
    "databaseType": "sql",
    "jpaMetamodelFiltering": true,
    "pagination": "pagination"
}
