{
    "fluentMethods": true,
    "clientRootFolder": "",
    "relationships": [],
    "fields": [
        {
            "fieldName": "clientId",
            "fieldType": "String",
            "fieldValidateRules": [
                "required",
                "unique"
            ]
        },
        {
            "fieldName": "subPathUrl",
            "fieldType": "String",
            "fieldValidateRules": [
                "required",
                "unique"
            ]
        },
        {
            "fieldName": "webLogoUrl",
            "fieldType": "String"
        },
        {
            "fieldName": "primaryColorValue",
            "fieldType": "String"
        },
        {
            "fieldName": "clientName",
            "fieldType": "String"
        },
        {
            "fieldName": "clientUrl",
            "fieldType": "String"
        }
    ],
    "changelogDate": "20200220072456",
    "dto": "mapstruct",
    "searchEngine": false,
    "service": "serviceImpl",
    "entityTableName": "client_brand_setting",
    "databaseType": "sql",
    "jpaMetamodelFiltering": true,
    "pagination": "pagination"
}
