{
    "fluentMethods": true,
    "clientRootFolder": "",
    "relationships": [
        {
            "relationshipName": "program",
            "otherEntityName": "program",
            "relationshipType": "many-to-one",
            "relationshipValidateRules": [
                "required"
            ],
            "otherEntityField": "name",
            "otherEntityRelationshipName": "programCategoryPoint"
        }
    ],
    "fields": [
        {
            "fieldName": "categoryCode",
            "fieldType": "String",
            "fieldValidateRules": [
                "required"
            ]
        },
        {
            "fieldName": "categoryName",
            "fieldType": "String"
        },
        {
            "fieldName": "percentPoint",
            "fieldType": "BigDecimal"
        },
        {
            "fieldName": "valuePoint",
            "fieldType": "BigDecimal"
        },
        {
            "fieldName": "locked",
            "fieldType": "Boolean"
        }
    ],
    "changelogDate": "20190528112117",
    "dto": "mapstruct",
    "searchEngine": false,
    "service": "serviceImpl",
    "entityTableName": "program_category_point",
    "databaseType": "sql",
    "jpaMetamodelFiltering": true,
    "pagination": "pagination"
}
