{
    "fluentMethods": true,
    "clientRootFolder": "",
    "relationships": [
      {
        "relationshipName": "programLevel",
        "otherEntityName": "programLevel",
        "relationshipType": "many-to-one",
        "relationshipValidateRules": [
          "required"
        ],
        "otherEntityField": "id",
        "otherEntityRelationshipName": "programRequirementItems"
      }
    ],
    "fields": [
        {
            "fieldName": "itemId",
            "fieldType": "String",
            "fieldValidateRules": [
                "required"
            ]
        },
        {
            "fieldName": "nameOfItem",
            "fieldType": "String"
        },
        {
            "fieldName": "typeOfItem",
            "fieldType": "String",
            "fieldValidateRules": [
                "required"
            ]
        },
        {
            "fieldName": "itemCode",
            "fieldType": "String",
            "fieldValidateRules": [
                "required"
            ]
        },
        {
            "fieldName": "subgroupId",
            "fieldType": "String"
        },
        {
            "fieldName": "subgroupName",
            "fieldType": "String"
        },
        {
            "fieldName": "createdAt",
            "fieldType": "Instant"
        },
        {
          "fieldName": "program_level_id",
          "fieldType": "Long"
        }
    ],
    "changelogDate": "20200526072728",
    "dto": "mapstruct",
    "searchEngine": false,
    "service": "serviceImpl",
    "entityTableName": "program_requirement_items",
    "databaseType": "sql",
    "jpaMetamodelFiltering": true,
    "pagination": "pagination"
}
