{
    "fluentMethods": true,
    "clientRootFolder": "",
    "relationships": [
        {
            "relationshipName": "programUser",
            "otherEntityName": "programUser",
            "relationshipType": "many-to-one",
            "otherEntityField": "id"
        },
        {
            "relationshipName": "programCohort",
            "otherEntityName": "programCohort",
            "relationshipType": "many-to-one",
            "otherEntityField": "id"
        }
    ],
    "fields": [
        {
            "fieldName": "progress",
            "fieldType": "Long"
        },
        {
          "fieldName": "numberOfPass",
          "fieldType": "Integer"
        },
        {
          "fieldName": "numberOfFailure",
          "fieldType": "Integer"
        },
        {
            "fieldName": "status",
            "fieldType": "CohortStatus",
            "fieldValues": "INPROGRESS,PENDING,COMPLETED"
        },
        {
            "fieldName": "createdDate",
            "fieldType": "Instant",
            "fieldValidateRules": [
                "required"
            ]
        },
        {
            "fieldName": "modifiedDate",
            "fieldType": "Instant",
            "fieldValidateRules": [
                "required"
            ]
        }
    ],
    "changelogDate": "20210423050208",
    "dto": "mapstruct",
    "searchEngine": false,
    "service": "serviceImpl",
    "entityTableName": "program_user_cohort",
    "databaseType": "sql",
    "jpaMetamodelFiltering": true,
    "pagination": "infinite-scroll"
}
