{
    "fluentMethods": true,
    "clientRootFolder": "",
    "relationships": [
        {
            "relationshipName": "programCategoryPoint",
            "otherEntityName": "programCategoryPoint",
            "relationshipType": "one-to-many",
            "otherEntityRelationshipName": "program"
        },
        {
            "relationshipName": "programHealthyRange",
            "otherEntityName": "programHealthyRange",
            "relationshipType": "one-to-many",
            "otherEntityRelationshipName": "program"
        }
    ],
    "fields": [
        {
            "fieldName": "name",
            "fieldType": "String",
            "fieldValidateRules": [
                "required",
                "unique"
            ]
        },
        {
            "fieldName": "lastSent",
            "fieldType": "LocalDate"
        },
        {
            "fieldName": "isRetriggerEmail",
            "fieldType": "Boolean",
            "fieldValidateRules": []
        },
        {
            "fieldName": "isEligible",
            "fieldType": "Boolean"
        },
        {
            "fieldName": "isSentRegistrationEmail",
            "fieldType": "Boolean"
        },
        {
            "fieldName": "isRegisteredForPlatform",
            "fieldType": "Boolean"
        },
        {
            "fieldName": "isScheduledScreening",
            "fieldType": "Boolean"
        },
        {
            "fieldName": "isFunctionally",
            "fieldType": "Boolean"
        },
        {
            "fieldName": "logoUrl",
            "fieldType": "String"
        },
        {
            "fieldName": "description",
            "fieldType": "String"
        },
        {
            "fieldName": "userPoint",
            "fieldType": "BigDecimal"
        },
        {
            "fieldName": "lastModifiedDate",
            "fieldType": "Instant"
        },
        {
            "fieldName": "createdDate",
            "fieldType": "Instant"
        },
        {
            "fieldName": "lastModifiedBy",
            "fieldType": "String"
        },
        {
            "fieldName": "createdBy",
            "fieldType": "String"
        },
        {
            "fieldName": "status",
            "fieldType": "String"
        },
        {
            "fieldName": "isUsePoint",
            "fieldType": "Boolean"
        },
        {
            "fieldName": "isScreen",
            "fieldType": "Boolean"
        },
        {
            "fieldName": "isCoaching",
            "fieldType": "Boolean"
        },
        {
            "fieldName": "isWellMatric",
            "fieldType": "Boolean"
        },
        {
            "fieldName": "isHP",
            "fieldType": "Boolean"
        },
        {
            "fieldName": "isUseLevel",
            "fieldType": "Boolean"
        },
        {
            "fieldName": "startDate",
            "fieldType": "Instant"
        },
        {
            "fieldName": "resetDate",
            "fieldType": "Instant"
        },
        {
            "fieldName": "isTemplate",
            "fieldType": "Boolean",
            "fieldValidateRules": [
                "required"
            ]
        },
        {
            "fieldName": "isPreview",
            "fieldType": "Boolean"
        },
        {
            "fieldName": "previewDate",
            "fieldType": "Instant"
        },
        {
            "fieldName": "previewTimeZone",
            "fieldType": "String"
        },
        {
            "fieldName": "startTimeZone",
            "fieldType": "String"
        },
        {
            "fieldName": "endTimeZone",
            "fieldType": "String"
        },
        {
            "fieldName": "levelStructure",
            "fieldType": "String"
        },
        {
            "fieldName": "programLength",
            "fieldType": "Integer"
        },
        {
            "fieldName": "isHPSF",
            "fieldType": "Boolean"
        },
        {
            "fieldName": "isHTK",
            "fieldType": "Boolean"
        },
        {
            "fieldName": "isLabcorp",
            "fieldType": "Boolean"
        },
        {
            "fieldName": "labcorpAccountNumber",
            "fieldType": "String"
        },
        {
            "fieldName": "labcorpFileUrl",
            "fieldType": "String"
        },
        {
            "fieldName": "applyRewardAllSubgroup",
            "fieldType": "Boolean"
        },
        {
            "fieldName": "biometricDeadlineDate",
            "fieldType": "Instant"
        },
        {
            "fieldName": "biometricLookbackDate",
            "fieldType": "Instant"
        },
        {
            "fieldName": "landingBackgroundImageUrl",
            "fieldType": "String"
        },
        {
            "fieldName": "isTobaccoSurchargeManagement",
            "fieldType": "Boolean"
        },
        {
            "fieldName": "tobaccoAttestationDeadline",
            "fieldType": "Instant"
        },
        {
            "fieldName": "tobaccoProgramDeadline",
            "fieldType": "Instant"
        },
        {
            "fieldName": "isAwardedForTobaccoAttestation",
            "fieldType": "Boolean"
        },
        {
            "fieldName": "isAwardedForTobaccoRas",
            "fieldType": "Boolean"
        }
    ],
    "changelogDate": "20190523073358",
    "dto": "mapstruct",
    "searchEngine": false,
    "service": "serviceImpl",
    "entityTableName": "program",
    "databaseType": "sql",
    "jpaMetamodelFiltering": true,
    "pagination": "pagination"
}
