{
    "fluentMethods": true,
    "clientRootFolder": "",
    "relationships": [
        {
            "relationshipName": "program",
            "otherEntityName": "program",
            "relationshipType": "many-to-one",
            "relationshipValidateRules": [
                "required"
            ],
            "otherEntityField": "name",
            "otherEntityRelationshipName": "programActivity"
        },
        {
            "relationshipName": "programPhase",
            "otherEntityName": "programPhase",
            "relationshipType": "many-to-one",
            "relationshipValidateRules": [
                "required"
            ],
            "otherEntityField": "phaseOrder",
            "otherEntityRelationshipName": "programActivity"
        }
    ],
    "fields": [
        {
            "fieldName": "activityId",
            "fieldType": "String",
            "fieldValidateRules": [
                "required"
            ]
        },
        {
            "fieldName": "activityCode",
            "fieldType": "String",
            "fieldValidateRules": [
                "required"
            ]
        },
        {
            "fieldName": "isCustomized",
            "fieldType": "Boolean"
        },
        {
            "fieldName": "masterId",
            "fieldType": "String"
        }
    ],
    "changelogDate": "20190606081750",
    "dto": "mapstruct",
    "searchEngine": false,
    "service": "serviceImpl",
    "entityTableName": "program_activity",
    "databaseType": "sql",
    "jpaMetamodelFiltering": true,
    "pagination": "pagination"
}
