{
    "fluentMethods": true,
    "clientRootFolder": "",
    "relationships": [
        {
            "relationshipName": "programLevel",
            "otherEntityName": "programLevel",
            "relationshipType": "many-to-one",
            "relationshipValidateRules": [
                "required"
            ],
            "otherEntityField": "name",
            "otherEntityRelationshipName": "programLevelPath"
        }
    ],
    "fields": [
        {
            "fieldName": "pathId",
            "fieldType": "String",
            "fieldValidateRules": [
                "required"
            ]
        },
        {
            "fieldName": "name",
            "fieldType": "String",
            "fieldValidateRules": [
                "required"
            ]
        },
        {
            "fieldName": "subgroupId",
            "fieldType": "String"
        },
        {
            "fieldName": "subgroupName",
            "fieldType": "String"
        },
        {
            "fieldName": "pathType",
            "fieldType": "String"
        },
        {
            "fieldName": "pathCategory",
            "fieldType": "String"
        }
    ],
    "changelogDate": "20200218075207",
    "dto": "mapstruct",
    "searchEngine": false,
    "service": "serviceImpl",
    "entityTableName": "program_level_path",
    "databaseType": "sql",
    "jpaMetamodelFiltering": true,
    "pagination": "pagination"
}
