{
    "fluentMethods": true,
    "clientRootFolder": "",
    "relationships": [],
    "fields": [
        {
            "fieldName": "biometricCode",
            "fieldType": "String",
            "fieldValidateRules": []
        },
        {
            "fieldName": "biometricName",
            "fieldType": "String",
            "fieldValidateRules": []
        },
        {
            "fieldName": "maleMin",
            "fieldType": "Float",
            "fieldValidateRules": []
        },
        {
            "fieldName": "maleMax",
            "fieldType": "Float",
            "fieldValidateRules": []
        },
        {
            "fieldName": "femaleMin",
            "fieldType": "Float",
            "fieldValidateRules": []
        },
        {
            "fieldName": "femaleMax",
            "fieldType": "Float",
            "fieldValidateRules": []
        },
        {
            "fieldName": "unidentifiedMin",
            "fieldType": "Float",
            "fieldValidateRules": []
        },
        {
            "fieldName": "unidentifiedMax",
            "fieldType": "Float",
            "fieldValidateRules": []
        }
    ],
    "changelogDate": "20200312032422",
    "dto": "mapstruct",
    "searchEngine": false,
    "service": "serviceImpl",
    "entityTableName": "program_biometric_data",
    "databaseType": "sql",
    "jpaMetamodelFiltering": true,
    "pagination": "pagination"
}
