{
    "fluentMethods": true,
    "clientRootFolder": "",
    "relationships": [
        {
            "relationshipName": "programLevel",
            "otherEntityName": "programLevel",
            "relationshipType": "many-to-one",
            "relationshipValidateRules": [
                "required"
            ],
            "otherEntityField": "name",
            "otherEntityRelationshipName": "programLevelReward"
        }
    ],
    "fields": [
        {
            "fieldName": "description",
            "fieldType": "String"
        },
        {
            "fieldName": "quantity",
            "fieldType": "Integer",
            "fieldValidateRules": [
                "min"
            ],
            "fieldValidateRulesMin": "1"
        },
        {
            "fieldName": "code",
            "fieldType": "String",
            "fieldValidateRules": [
                "required"
            ]
        },
        {
            "fieldName": "rewardAmount",
            "fieldType": "BigDecimal",
            "fieldValidateRules": [
                "required",
                "min"
            ],
            "fieldValidateRulesMin": "1"
        },
        {
            "fieldName": "rewardType",
            "fieldType": "String",
            "fieldValidateRules": [
                "required"
            ]
        },
        {
            "fieldName": "campaignId",
            "fieldType": "String"
        },
        {
            "fieldName": "subgroupId",
            "fieldType": "String"
        },
        {
            "fieldName": "subgroupName",
            "fieldType": "String"
        }
    ],
    "changelogDate": "20190606091356",
    "dto": "mapstruct",
    "searchEngine": false,
    "service": "serviceImpl",
    "entityTableName": "program_level_reward",
    "databaseType": "sql",
    "jpaMetamodelFiltering": true,
    "pagination": "pagination"
}
