{
    "fluentMethods": true,
    "clientRootFolder": "",
    "relationships": [],
    "fields": [

    ],
    "changelogDate": "20210423081649",
    "dto": "no",
    "searchEngine": false,
    "service": "no",
    "entityTableName": "program_user_logs",
    "databaseType": "sql",
    "jpaMetamodelFiltering": false,
    "pagination": "infinite-scroll"
}
