{
    "fluentMethods": true,
    "clientRootFolder": "",
    "relationships": [],
    "fields": [
        {
            "fieldName": "endPoint",
            "fieldType": "String"
        },
        {
            "fieldName": "payload",
            "fieldType": "String"
        },
        {
            "fieldName": "createdAt",
            "fieldType": "Instant"
        },
        {
            "fieldName": "errorMessage",
            "fieldType": "String"
        },
        {
            "fieldName": "status",
            "fieldType": "String"
        },
        {
            "fieldName": "serviceType",
            "fieldType": "String"
        },
        {
            "fieldName": "attemptedAt",
            "fieldType": "Instant"
        }
    ],
    "changelogDate": "20190523063913",
    "dto": "mapstruct",
    "searchEngine": false,
    "service": "serviceImpl",
    "entityTableName": "program_integration_tracking",
    "databaseType": "sql",
    "jpaMetamodelFiltering": true,
    "pagination": "pagination"
}
