{
    "fluentMethods": true,
    "clientRootFolder": "",
    "relationships": [],
    "fields": [
        {
            "fieldName": "clientId",
            "fieldType": "String",
            "fieldValidateRules": [
                "required"
            ]
        },
        {
            "fieldName": "subgroupId",
            "fieldType": "String"
        },
        {
            "fieldName": "title",
            "fieldType": "String"
        },
        {
            "fieldName": "content",
            "fieldType": "String"
        },
        {
            "fieldName": "isTargetSubgroup",
            "fieldType": "Boolean"
        },
        {
            "fieldName": "subgroupName",
            "fieldType": "String"
        }
    ],
    "changelogDate": "20200207152400",
    "dto": "mapstruct",
    "searchEngine": false,
    "service": "serviceImpl",
    "entityTableName": "term_and_condition",
    "databaseType": "sql",
    "jpaMetamodelFiltering": true,
    "pagination": "pagination"
}
