id;client_id;sub_domain_url;created_at;modified_at;program_id;program_name
1;mobile Fish;Home Loan Account Table Computer;2020-07-24T01:46:12;2020-07-23T16:08:32;86617;Savings Account alarm
2;Tasty Metal Bacon;red Chips Soap;2020-07-23T19:51:44;2020-07-23T12:29:04;52475;web-readiness
3;Namibia;Steel zero administration;2020-07-23T18:22:17;2020-07-23T21:34:40;45606;bluetooth
4;syndicate;Mississippi Refined Rubber Chicken Table;2020-07-24T01:36:10;2020-07-24T02:50:45;94888;Planner cross-platform access
5;Public-key;infomediaries;2020-07-24T00:14:07;2020-07-23T12:31:28;49517;Games Regional Digitized
6;copy convergence;Mayotte;2020-07-23T22:43:39;2020-07-24T02:24:45;96958;connect Markets Chief
7;capacitor archive;sky blue Tasty Plastic Pizza;2020-07-23T17:50:09;2020-07-23T09:13:43;27134;generating compelling
8;Home Loan Account;Plastic;2020-07-23T07:54:42;2020-07-23T23:11:52;7455;Administrator
9;reinvent 24 hour Jewelery;monitor;2020-07-23T09:40:05;2020-07-23T08:12:00;77127;Unbranded Plastic Tuna Frozen
10;generating Highway Ergonomic;moratorium moratorium;2020-07-23T09:39:13;2020-07-23T12:58:23;63755;COM
