id;client_id;client_name;updated_date;updated_by;customer_identifier;account_identifier;account_threshold;current_balance;client_email;program_id
1;mobile Fish;Home Loan Account Table Computer;2019-09-25T07:18:01;FTP Savings Account;deposit Tasty Metal Bacon Implementation;Chips;18340;61748;Home Loan Account;1
2;Home Namibia;Steel zero administration;2019-09-24T23:54:06;Common;Savings Account syndicate Planner;Refined Rubber Chicken Table;6505;1326;Usability South Dakota envisioneer;1
3;Public-key;infomediaries;2019-09-25T05:45:56;Buckinghamshire Games;incentivize Tuna copy;Costa Rica Mayotte;18485;3131;synthesizing Views e-enable;10
4;capacitor archive;sky blue Tasty Plastic Pizza;2019-09-24T23:21:58;interactive generating compelling;Home Loan Account;Plastic;80219;16526;Industrial;5
5;reinvent 24 hour Jewelery;monitor;2019-09-24T15:11:54;quantify Unbranded Plastic Tuna Frozen;generating Highway Ergonomic;moratorium moratorium;72960;59129;tangible Mississippi;4
6;Developer;synthesize Idaho compress;2019-09-24T20:50:36;Poland;Small partnerships;Outdoors;63641;47537;Montana;7
7;Concrete Investment Account Saint Lucia;User-centric;2019-09-25T06:50:49;neutral Salad;Auto Loan Account modular Refined;digital maroon;89255;88328;projection Fresh;4
8;Direct;Profit-focused;2019-09-24T22:26:38;copying;ability Hat Iraq;magenta Concrete;33761;24412;Gloves sky blue Oklahoma;5
9;Tasty Concrete Chips Exclusive;Buckinghamshire capability zero tolerance;2019-09-25T07:48:33;Personal Loan Account;paradigms Home;Investor Public-key;14489;53093;Way Dominican Republic;6
10;Handmade 24/7 Re-contextualized;web-enabled invoice withdrawal;2019-09-24T19:50:09;Licensed hacking installation;Argentine Peso;Kentucky Algerian Dinar Clothing;51209;80950;turn-key;1
