id;client_id;client_name;client_email;tango_account_identifier;tango_customer_identifier;tango_current_balance;tango_threshold_balance;tango_credit_token;updated_date;updated_by
1;mobile Fish;Home Loan Account Table Computer;Trace;Savings Account alarm;Tasty Metal Bacon;93855;21233;Chips;2019-09-25T11:06:08;methodology Albania
2;Home Namibia;Steel zero administration;Multi-channelled Licensed;grey Cambridgeshire;Canyon HDD;68030;17052;Small Frozen Sausages Planner;2019-09-24T20:06:09;access Intelligent
3;Monitored Bahamian Dollar Investment Account;Games Regional Digitized;copy convergence;Mayotte;Industrial;84228;77513;Markets Chief;2019-09-25T01:09:16;National Awesome sky blue
4;Tactics;scale interactive generating;Specialist Home Loan Account;Plastic;Car Industrial deliverables;39488;19871;Books;2019-09-24T19:55:59;monitor
5;1080p Checking Account Identity;Frozen IB;Highway Ergonomic;moratorium moratorium;New York tangible Mississippi;38292;11959;bus synthesize Idaho;2019-09-24T21:00:03;Avon
6;system Small;Intelligent Outdoors;Harbor Montana;Corporate Phased relationships;white Brand Money Market Account;69478;16122;Web virtual deposit;2019-09-24T18:35:21;digital maroon
7;EXE projection Fresh;support Gorgeous;withdrawal;copying;ability Hat Iraq;48482;22210;Concrete 24/7 Directives;2019-09-25T07:44:50;Mauritania
8;facilitate Tasty Concrete Chips Exclusive;Buckinghamshire capability zero tolerance;mission-critical;Berkshire Small Plastic Pants Investor;Canadian Dollar;53093;48945;Designer Persistent;2019-09-24T23:22:22;navigate
9;Re-contextualized;web-enabled invoice withdrawal;bypassing optical;installation;Argentine Peso;85835;59089;Algerian Dinar;2019-09-25T15:06:21;Buckinghamshire Future-proofed deposit
10;Quality;synthesize Creative;Forint;Concrete Global SMS;Profound;17495;81722;Macao Equatorial Guinea Vision-oriented;2019-09-25T13:16:10;Customer Human deposit
