id;name;last_sent;is_retrigger_email;is_eligible;is_sent_registration_email;is_registered_for_platform;is_scheduled_screening;is_functionally;logo_url;description;user_point;last_modified_date;created_date;last_modified_by;created_by;status;is_use_point;is_screen;is_coaching;is_well_matric;is_hp;is_use_level;start_date;reset_date;is_template;is_preview;preview_date;preview_time_zone;start_time_zone;end_time_zone;level_structure;program_length;is_hpsf;is_htk;is_labcorp;labcorp_account_number;labcorp_file_url;apply_reward_all_subgroup;biometric_deadline_date;biometric_lookback_date;landing_background_image_url;is_tobacco_surcharge_management;tobacco_attestation_deadline;tobacco_program_deadline;is_awarded_for_tobacco_attestation;is_awarded_for_tobacco_ras
1;mobile Fish;2021-04-06T09:12:22;true;true;false;false;false;false;Trace;Savings Account alarm;2058;2021-04-07T02:33:52;2021-04-06T04:38:27;parsing red Chips;Money Market Account;Albania web-readiness;false;true;true;false;false;false;2021-04-06T20:54:25;2021-04-06T04:32:55;false;false;2021-04-06T16:58:22;bluetooth;syndicate;Mississippi Refined Rubber Chicken Table;Automotive;94220;true;true;true;access Intelligent;Monitored Bahamian Dollar Investment Account;true;2021-04-07T03:05:35;2021-04-06T23:45:28;incentivize Tuna copy;false;2021-04-06T15:26:13;2021-04-06T22:55:40;true;true
2;Industrial;2021-04-06T07:42:14;true;false;true;false;true;true;capacitor archive;sky blue Tasty Plastic Pizza;38867;2021-04-06T09:58:58;2021-04-06T21:24:22;generating compelling;Home Loan Account;Plastic;true;false;false;false;true;false;2021-04-06T09:23:05;2021-04-06T18:26:29;false;false;2021-04-07T03:47:09;overriding;monitor 1080p Checking Account;world-class Frozen IB;Highway Ergonomic;37081;false;true;false;pixel withdrawal;Mississippi embrace Developer;true;2021-04-06T09:39:35;2021-04-06T10:35:49;Robust Networked;false;2021-04-06T15:22:23;2021-04-06T10:51:46;false;false
3;partnerships;2021-04-06T23:04:38;false;true;true;false;false;true;European Unit of Account 9(E.U.A.-9) Concrete;relationships override;22879;2021-04-06T05:17:25;2021-04-07T02:04:15;neutral Salad;Auto Loan Account modular Refined;digital maroon;true;true;true;false;true;false;2021-04-06T06:24:45;2021-04-06T19:22:02;false;true;2021-04-07T01:16:38;Profit-focused;Jewelery cutting-edge;Games;Iraq Bedfordshire;69243;false;false;false;Directives;sky blue;true;2021-04-06T11:02:46;2021-04-06T18:13:35;Tasty Concrete Chips Exclusive;true;2021-04-06T15:59:04;2021-04-06T10:49:27;false;false
4;Supervisor;2021-04-06T21:30:57;true;true;true;false;false;false;ubiquitous;Public-key Granite;48945;2021-04-06T17:10:18;2021-04-06T04:15:47;Persistent Bulgarian Lev;24/7 Re-contextualized cross-platform;invoice withdrawal;true;true;false;true;true;false;2021-04-06T20:13:11;2021-04-06T15:43:18;false;true;2021-04-07T02:56:23;Kentucky Algerian Dinar Clothing;open-source turn-key;Sausages;disintermediate Cambridgeshire hacking;67569;false;true;false;Global;Fiji Dollar Profound Bacon;true;2021-04-06T14:35:37;2021-04-06T15:31:09;content-based Executive;true;2021-04-06T06:23:08;2021-04-06T14:31:10;true;true
5;pink even-keeled;2021-04-06T11:06:36;true;true;true;true;true;false;THX bypassing Marketing;Dynamic Home Loan Account Tools;10147;2021-04-06T05:21:20;2021-04-06T11:59:40;Home Gloves Latvia;Ports Manager Fish;Networked;false;false;true;false;true;true;2021-04-06T07:32:14;2021-04-06T10:36:58;true;false;2021-04-06T14:16:45;Sleek turn-key;Ergonomic;Strategist target;Investor users dot-com;64510;true;true;false;white sensor local;calculate;false;2021-04-06T23:40:04;2021-04-06T04:02:58;Villages uniform PCI;true;2021-04-07T03:32:51;2021-04-06T05:02:42;true;false
6;Venezuela Wisconsin;2021-04-06T04:23:26;true;false;false;false;false;false;eco-centric Bedfordshire mesh;Configuration UIC-Franc;57006;2021-04-07T02:13:42;2021-04-07T01:35:10;Credit Card Account;intuitive Open-architected system-worthy;program;true;false;true;true;false;true;2021-04-06T20:52:20;2021-04-06T20:48:08;true;false;2021-04-06T08:28:33;HDD;Sleek Beauty Auto Loan Account;deposit;extend Unbranded Fresh Pants Tools;57886;false;false;true;Garden Dale Wallis and Futuna;generating;true;2021-04-07T03:11:11;2021-04-06T21:54:45;Licensed Plastic Pants;true;2021-04-07T00:52:08;2021-04-06T20:04:44;true;true
7;composite Orchestrator Club;2021-04-06T07:42:36;false;false;true;false;true;true;Metal Frozen;Buckinghamshire alliance redundant;27083;2021-04-06T17:30:50;2021-04-06T17:22:59;Gorgeous Electronics Brand;infomediaries Som Rustic Frozen Keyboard;Enterprise-wide Benin;true;false;true;true;false;true;2021-04-06T05:00:07;2021-04-06T15:31:04;true;true;2021-04-06T14:36:50;Credit Card Account paradigms;Louisiana;hack;leading-edge;9179;false;false;false;JBOD;Shoes Music connect;true;2021-04-06T16:33:19;2021-04-06T19:36:26;Light;true;2021-04-06T18:21:16;2021-04-07T02:45:54;true;true
8;HTTP explicit;2021-04-07T03:33:04;true;true;true;true;true;true;Chilean Peso Unidades de fomento Checking Account;invoice Outdoors New York;94023;2021-04-06T08:41:45;2021-04-06T14:06:26;incubate deposit Station;parsing Investment Account;Branding Dynamic black;false;false;false;false;false;false;2021-04-07T01:39:06;2021-04-06T13:04:50;true;false;2021-04-07T02:12:35;functionalities quantifying;wireless;hybrid;Solomon Islands Dollar;34833;true;true;true;system;Specialist China deliverables;true;2021-04-06T08:33:16;2021-04-06T14:05:47;interface Cotton Robust;true;2021-04-06T19:44:21;2021-04-06T07:06:28;true;true
9;Managed Dobra application;2021-04-06T22:12:03;false;false;true;true;true;false;monetize superstructure Fantastic;Industrial;90538;2021-04-06T07:35:14;2021-04-07T01:43:39;time-frame Quality;Borders Borders Practical;methodical;false;true;true;false;true;true;2021-04-06T08:55:14;2021-04-06T09:10:03;true;false;2021-04-07T01:43:46;Cambridgeshire Tasty Rubber Car mindshare;Guam bandwidth Liaison;program Auto Loan Account Refined;infomediaries;22257;false;false;true;panel Sleek Intelligent;Maine PCI SAS;false;2021-04-06T05:11:05;2021-04-06T06:08:02;Pennsylvania dynamic bandwidth;false;2021-04-06T09:16:01;2021-04-06T18:50:48;true;true
10;Triple-buffered array;2021-04-06T17:29:30;false;false;false;false;false;true;hack;Fresh payment synthesize;58336;2021-04-06T22:13:06;2021-04-06T04:49:35;grow asymmetric;Cyprus web services auxiliary;Designer Incredible Fresh Car Tuvalu;true;true;false;false;true;true;2021-04-06T04:39:19;2021-04-07T02:06:29;true;false;2021-04-06T12:48:47;Dalasi;Orchestrator Naira;Legacy Unbranded Plastic Chips;Unbranded Cotton Table Generic B2B;16967;false;true;false;one-to-one Indiana;holistic;false;2021-04-06T04:14:58;2021-04-06T17:02:27;Beauty dynamic schemas;true;2021-04-06T11:29:06;2021-04-06T21:24:56;false;false
