id;path_id;name;subgroup_id;subgroup_name;path_type;path_category;program_level_id
1;mobile Fish;Home Loan Account Table Computer;Trace;Savings Account alarm;Tasty Metal Bacon;red Chips Soap;4
2;Albania web-readiness;Namibia;Steel zero administration;Multi-channelled Licensed;grey Cambridgeshire;Canyon HDD;7
3;Centers;Factors;South Dakota envisioneer Music;Nakfa;Bahamian Dollar Investment Account;Games Regional Digitized;7
4;hardware Costa Rica Mayotte;Industrial;connect Markets Chief;capacitor archive;sky blue Tasty Plastic Pizza;compress South Georgia and the South Sandwich Islands;6
5;Specialist Home Loan Account;Plastic;Car Industrial deliverables;orange Books;magenta monitor 1080p;Unbranded Plastic Tuna Frozen;9
6;Investment Account archive Fantastic Plastic Chicken;payment;withdrawal COM;embrace Developer;synthesize Idaho compress;Sleek Metal Table Small;5
7;red;withdrawal knowledge base Buckinghamshire;Concrete Investment Account Saint Lucia;User-centric;Money Market Account;Salad Web virtual;7
8;RSS;mint green e-business EXE;back-end;granular Direct contextually-based;synergies copying;ability Hat Iraq;5
9;Bahamian Dollar;24/7;Gloves sky blue Oklahoma;robust Engineer;Exclusive Moroccan Dirham card;zero tolerance;1
10;Personal Loan Account;paradigms Home;Investor Public-key;Lebanon;Designer Persistent;Handmade 24/7 Re-contextualized;9
