id;cohort_name;created_date;modified_date;is_default
1;mobile Fish;2021-04-21T06:06:03;2021-04-21T10:26:44;true
2;Dam;2021-04-21T22:24:49;2021-04-21T23:25:09;false
3;seamless Metal deposit;2021-04-21T23:27:33;2021-04-21T01:32:08;true
4;Implementation Electronics Officer;2021-04-21T09:59:37;2021-04-21T17:30:41;true
5;Grocery Home;2021-04-21T12:13:07;2021-04-21T10:07:44;false
6;Gorgeous Frozen Pants;2021-04-21T19:13:36;2021-04-21T13:52:03;false
7;Savings Account syndicate Planner;2021-04-21T13:36:39;2021-04-21T23:41:54;true
8;Yuan Renminbi Centers;2021-04-22T00:29:41;2021-04-21T02:02:24;true
9;South Dakota envisioneer Music;2021-04-21T19:16:18;2021-04-21T08:23:30;false
10;Bahamian Dollar Investment Account;2021-04-21T04:49:00;2021-04-21T23:59:16;false
