id;progress;number_of_pass;number_of_failure;status;created_date;modified_date
1;37454;79654;95071;INPROGRESS;2021-04-22T14:50:55;2021-04-22T14:53:32
2;15601;44583;15599;INPROGRESS;2021-04-22T14:47:23;2021-04-23T01:47:15
3;70807;65088;2058;INPROGRESS;2021-04-22T09:14:17;2021-04-22T06:41:29
4;21233;77;18182;INPROGRESS;2021-04-22T18:50:59;2021-04-23T04:39:46
5;29122;52477;61185;INPROGRESS;2021-04-22T20:25:26;2021-04-22T23:37:48
6;45606;9060;78517;INPROGRESS;2021-04-22T14:59:55;2021-04-22T18:00:51
7;4645;85994;60754;INPROGRESS;2021-04-22T09:48:54;2021-04-22T19:57:59
8;30461;1596;9767;INPROGRESS;2021-04-22T18:39:10;2021-04-22T12:49:06
9;12203;60999;49517;INPROGRESS;2021-04-22T13:18:58;2021-04-22T11:05:16
10;31171;42515;52006;INPROGRESS;2021-04-23T00:46:48;2021-04-23T04:27:54
