id;data_input_type;rules;created_date;modified_date
1;mobile Fish;Home Loan Account Table Computer;2021-04-14T07:39:39;2021-04-13T22:01:59
2;seamless Metal deposit;Producer;2021-04-13T13:04:35;2021-04-13T10:31:48
3;Electronics;Soap methodology Albania;2021-04-13T22:41:18;2021-04-14T08:30:05
4;Namibia;Steel zero administration;2021-04-14T00:15:44;2021-04-14T03:28:06
5;Licensed Savings Account;Cambridgeshire Mississippi;2021-04-14T07:56:24;2021-04-13T12:25:00
6;Yuan Renminbi Centers;Factors;2021-04-13T09:52:48;2021-04-13T19:32:10
7;envisioneer Music Public-key;infomediaries;2021-04-14T06:07:34;2021-04-13T18:24:54
8;backing up Salad;Digitized invoice;2021-04-14T01:34:26;2021-04-13T22:51:05
9;sky blue Georgia;Facilitator;2021-04-13T14:27:07;2021-04-13T22:15:39
10;e-enable Communications capacitor;Awesome;2021-04-14T04:21:05;2021-04-13T20:33:18
