id;item_id;name_of_item;type_of_item;item_code;subgroup_id;subgroup_name;created_at;program_level_id
1;mobile Fish;Home Loan Account Table Computer;Trace;Savings Account alarm;Tasty Metal Bacon;red Chips Soap;2020-05-28T23:52:51;7
2;Grocery Home;Investment Account Steel;Coordinator;Common;Savings Account syndicate Planner;Refined Rubber Chicken Table;2020-05-29T05:37:17;1
3;Usability South Dakota envisioneer;Intelligent;Monitored Bahamian Dollar Investment Account;Games Regional Digitized;copy convergence;Mayotte;2020-05-29T02:44:46;1
4;synthesizing Views e-enable;Credit Card Account National Awesome;Aruba;software scale interactive;Louisiana Specialist Home Loan Account;Plastic;2020-05-28T11:55:48;2
5;Industrial;index orange;Jewelery;monitor;1080p Checking Account Identity;Frozen IB;2020-05-28T16:13:25;5
6;Ergonomic;moratorium moratorium;New York tangible Mississippi;Frozen bus;hard drive Robust Networked;Poland;2020-05-28T20:55:18;2
7;partnerships;Outdoors;Harbor Montana;Corporate Phased relationships;white Brand Money Market Account;Salad Web virtual;2020-05-28T15:58:52;2
8;Squares mint green e-business;Ghana back-end National;Direct;Profit-focused;Jewelery cutting-edge;Games;2020-05-28T18:55:29;6
9;Bedfordshire Bahamian Dollar;24/7;Gloves sky blue Oklahoma;robust Engineer;Exclusive Moroccan Dirham card;zero tolerance;2020-05-29T06:17:50;3
10;Analyst paradigms;encompassing;deposit Canadian Dollar Lebanon;Designer Persistent;Handmade 24/7 Re-contextualized;web-enabled invoice withdrawal;2020-05-28T18:19:27;9
