id;practice_id;name;subgroup_id;subgroup_name;program_level_id
1;mobile Fish;Home Loan Account Table Computer;Trace;Savings Account alarm;1
2;Producer;Implementation Electronics Officer;methodology Albania;Home Namibia;4
3;Gorgeous Frozen Pants;Common;Savings Account syndicate Planner;Refined Rubber Chicken Table;1
4;Factors;South Dakota envisioneer Music;Nakfa;Bahamian Dollar Investment Account;9
5;Salad;Digitized invoice;convergence;Mayotte;2
6;Facilitator;Views e-enable Communications;National Awesome sky blue;Tactics;9
7;compress South Georgia and the South Sandwich Islands;compelling mission-critical;bifurcated scalable;Small;10
8;index orange;Jewelery;monitor;1080p Checking Account Identity;7
9;Internal;Investment Account archive Fantastic Plastic Chicken;payment;withdrawal COM;5
10;Frozen bus;hard drive Robust Networked;Poland;Small partnerships;3
