id;program_level;status;order_id;order_date;gift_id;level_completed_date;participant_id;email;client_id;reward_type;reward_code;reward_amount;campaign_id;reward_message;event_id;program_user_id;program_id
1;37454;Directives application Home Loan Account;Dam;2020-04-06T03:29:17;Trace;2020-04-05T21:52:43;Metal deposit;Waino_Reichert21@gmail.com;Chips;Money Market Account;Albania web-readiness;29122;Investment Account Steel;Coordinator;Common;8;7
2;19967;Cambridgeshire Mississippi;HDD;2020-04-05T13:33:37;Centers;2020-04-06T05:34:09;Usability South Dakota envisioneer;Axel.Fay44@gmail.com;Rubber Buckinghamshire Games;incentivize Tuna copy;Costa Rica Mayotte;18485;Facilitator;Views e-enable Communications;National Awesome sky blue;1;10
3;32533;scale interactive generating;Specialist Home Loan Account;2020-04-05T23:15:49;scalable;2020-04-06T01:55:16;Industrial;Olin29@yahoo.com;Jewelery;monitor;1080p Checking Account Identity;65107;Internal;Investment Account archive Fantastic Plastic Chicken;payment;6;7
4;27472;Mississippi embrace Developer;synthesize Idaho compress;2020-04-05T18:02:12;Poland;2020-04-05T19:37:36;Grocery;Collin_Bartell47@gmail.com;Montana;Corporate Phased relationships;white Brand Money Market Account;69478;JSON;virtual deposit;Squares mint green e-business;9;6
5;32434;Fresh granular Direct;Profit-focused;2020-04-05T19:38:13;copying;2020-04-05T09:13:49;Games;Kaden.Johns@yahoo.com;Concrete 24/7 Directives;sky blue;Kenyan Shilling robust;97178;Functionality;Moroccan Dirham;capability zero tolerance Computers;7;10
6;50267;Small Plastic Pants Investor;Canadian Dollar;2020-04-05T17:08:43;Way Dominican Republic;2020-04-05T15:39:47;Handmade 24/7 Re-contextualized;Fredy_Koss@hotmail.com;deliver bypassing;hacking installation magenta;HDD;32595;red firewall open-source;deposit Sausages;disintermediate Cambridgeshire hacking;7;4
7;73521;azure;SMS Enhanced;2020-04-05T14:02:53;parsing;2020-04-05T16:33:46;Equatorial Guinea Vision-oriented;Virgil_Treutel@gmail.com;deposit B2B cross-media;programming SCSI drive;invoice Unbranded Cheese;89855;Home Loan Account Tools Unbranded;Supervisor clear-thinking;Latvia;7;5
8;65196;Devolved driver Networked;Fish;2020-04-05T21:05:32;program alarm;2020-04-05T22:29:39;Benin Berkshire;Dimitri58@yahoo.com;Coordinator Cambridgeshire Investor;cross-platform Borders;Libyan Dinar CSS;23018;Bedfordshire Alaska calculate;Chips;Villages uniform PCI;8;1
9;95307;hardware Venezuela Wisconsin;SDD disintermediate reinvent;2020-04-05T09:27:38;infrastructure;2020-04-06T01:49:11;Maryland Configuration;Tod9@hotmail.com;Credit Card Account;intuitive Open-architected system-worthy;program;69701;Sudanese Pound;France protocol;open-source HDD;10;1
10;51134;Borders;olive Handcrafted Cotton Bacon Unbranded Fresh Pants;2020-04-06T05:13:29;California interfaces;2020-04-05T13:45:33;implementation;Karen83@gmail.com;TCP Assimilated;compressing;Brunei Darussalam interface;82786;composite Orchestrator Club;Intelligent Granite Shirt Peru deposit;Frozen Analyst card;1;8
